…
### Want to see more of the tibble?  

If you do want to see more rows from the tibble, there are a few options!  

1. The `View()` function in RStudio is incredibly helpful. The input to this function is the `data.frame` or tibble you would like to see. Specifically, `View(chicago)` would provide you, the viewer, with a scrollable view (in a new tab) of the complete dataset.  

2. Use the fact that `print()` enables you to specify how many rows and columns you would like to display.
Here, we again display the chicago `data.frame` as a tibble but specify that we would only like to see 5 rows. The `width = Inf` argument specifies that we would like to see all the possible columns. Here, there are only 8, but for larger datasets, this can be helpful to specify.  

``
as_tibble(chicago) %>% 
  print(n = 5, width = Inf)
``

    # A tibble: 6,940 × 8
      city   tmpd  dptp date       pm25tmean2 pm10tmean2 o3tmean2 no2tmean2
      <chr> <dbl> <dbl> <date>          <dbl>      <dbl>    <dbl>     <dbl>
    1 chic   31.5  31.5 1987-01-01         NA       34       4.25      20.0
    2 chic   33    29.9 1987-01-02         NA       NA       3.30      23.2
    3 chic   33    27.4 1987-01-03         NA       34.2     3.33      23.8
    4 chic   29    28.6 1987-01-04         NA       47       4.38      30.4
    5 chic   32    28.9 1987-01-05         NA       NA       4.75      30.3
    # … with 6,935 more rows
…
