…
    library(readr)
    teams <- read_csv(here("data", "team_standings.csv"))
    
    Rows: 32 Columns: 2
    ── Column specification ────────────────────────────────────────────────────────
    Delimiter: ","
    chr (1): Team
    dbl (1): Standing
    
    ℹ Use `spec()` to retrieve the full column specification for this data.
    ℹ Specify the column types or set `show_col_types = FALSE` to quiet this message.
    teams
    
    # A tibble: 32 × 2
       Standing Team       
          <dbl> <chr>      
     1        1 Spain      
     2        2 Netherlands
     3        3 Germany    
     4        4 Uruguay    
     5        5 Argentina  
     6        6 Brazil     
     7        7 Ghana      
     8        8 Paraguay   
     9        9 Japan      
    10       10 Chile      
    # … with 22 more rows
…
